electric/selector/Quartus/simulation/qsim/TestProject_BoothMultiplier.msim.vcd
$comment
	File created using the following command:
		vcd file TestProject_BoothMultiplier.msim.vcd -direction
$end
$date
	Mon Nov 04 21:58:56 2013
$end
$version
	ModelSim Version 10.1d
$end
$timescale
	1ps
$end
$scope module DUT_vlg_vec_tst $end
$var reg 8 ! X [7:0] $end
$var reg 8 " Y [7:0] $end
$var wire 1 # DBL [3] $end
$var wire 1 $ DBL [2] $end
$var wire 1 % DBL [1] $end
$var wire 1 & DBL [0] $end
$var wire 1 ' Error [15] $end
$var wire 1 ( Error [14] $end
$var wire 1 ) Error [13] $end
$var wire 1 * Error [12] $end
$var wire 1 + Error [11] $end
$var wire 1 , Error [10] $end
$var wire 1 - Error [9] $end
$var wire 1 . Error [8] $end
$var wire 1 / Error [7] $end
$var wire 1 0 Error [6] $end
$var wire 1 1 Error [5] $end
$var wire 1 2 Error [4] $end
$var wire 1 3 Error [3] $end
$var wire 1 4 Error [2] $end
$var wire 1 5 Error [1] $end
$var wire 1 6 Error [0] $end
$var wire 1 7 NEG [3] $end
$var wire 1 8 NEG [2] $end
$var wire 1 9 NEG [1] $end
$var wire 1 : NEG [0] $end
$var wire 1 ; PP0 [8] $end
$var wire 1 < PP0 [7] $end
$var wire 1 = PP0 [6] $end
$var wire 1 > PP0 [5] $end
$var wire 1 ? PP0 [4] $end
$var wire 1 @ PP0 [3] $end
$var wire 1 A PP0 [2] $end
$var wire 1 B PP0 [1] $end
$var wire 1 C PP0 [0] $end
$var wire 1 D PP1 [8] $end
$var wire 1 E PP1 [7] $end
$var wire 1 F PP1 [6] $end
$var wire 1 G PP1 [5] $end
$var wire 1 H PP1 [4] $end
$var wire 1 I PP1 [3] $end
$var wire 1 J PP1 [2] $end
$var wire 1 K PP1 [1] $end
$var wire 1 L PP1 [0] $end
$var wire 1 M PP2 [8] $end
$var wire 1 N PP2 [7] $end
$var wire 1 O PP2 [6] $end
$var wire 1 P PP2 [5] $end
$var wire 1 Q PP2 [4] $end
$var wire 1 R PP2 [3] $end
$var wire 1 S PP2 [2] $end
$var wire 1 T PP2 [1] $end
$var wire 1 U PP2 [0] $end
$var wire 1 V PP3 [8] $end
$var wire 1 W PP3 [7] $end
$var wire 1 X PP3 [6] $end
$var wire 1 Y PP3 [5] $end
$var wire 1 Z PP3 [4] $end
$var wire 1 [ PP3 [3] $end
$var wire 1 \ PP3 [2] $end
$var wire 1 ] PP3 [1] $end
$var wire 1 ^ PP3 [0] $end
$var wire 1 _ Result [15] $end
$var wire 1 ` Result [14] $end
$var wire 1 a Result [13] $end
$var wire 1 b Result [12] $end
$var wire 1 c Result [11] $end
$var wire 1 d Result [10] $end
$var wire 1 e Result [9] $end
$var wire 1 f Result [8] $end
$var wire 1 g Result [7] $end
$var wire 1 h Result [6] $end
$var wire 1 i Result [5] $end
$var wire 1 j Result [4] $end
$var wire 1 k Result [3] $end
$var wire 1 l Result [2] $end
$var wire 1 m Result [1] $end
$var wire 1 n Result [0] $end
$var wire 1 o Result_Compare [15] $end
$var wire 1 p Result_Compare [14] $end
$var wire 1 q Result_Compare [13] $end
$var wire 1 r Result_Compare [12] $end
$var wire 1 s Result_Compare [11] $end
$var wire 1 t Result_Compare [10] $end
$var wire 1 u Result_Compare [9] $end
$var wire 1 v Result_Compare [8] $end
$var wire 1 w Result_Compare [7] $end
$var wire 1 x Result_Compare [6] $end
$var wire 1 y Result_Compare [5] $end
$var wire 1 z Result_Compare [4] $end
$var wire 1 { Result_Compare [3] $end
$var wire 1 | Result_Compare [2] $end
$var wire 1 } Result_Compare [1] $end
$var wire 1 ~ Result_Compare [0] $end
$var wire 1 !! SGL [3] $end
$var wire 1 "! SGL [2] $end
$var wire 1 #! SGL [1] $end
$var wire 1 $! SGL [0] $end
$var wire 1 %! Sign0 $end
$var wire 1 &! Sign1 $end
$var wire 1 '! Sign2 $end
$var wire 1 (! Sign3 $end
$var wire 1 )! sampler $end
$scope module i1 $end
$var wire 1 *! gnd $end
$var wire 1 +! vcc $end
$var wire 1 ,! unknown $end
$var tri1 1 -! devclrn $end
$var tri1 1 .! devpor $end
$var tri1 1 /! devoe $end
$var wire 1 0! inst1|lpm_mult_component|auto_generated|mac_out2~0 $end
$var wire 1 1! inst1|lpm_mult_component|auto_generated|mac_out2~1 $end
$var wire 1 2! inst|inst|inst4|inst37~0_combout $end
$var wire 1 3! inst|inst|inst4|inst6|inst3~0_combout $end
$var wire 1 4! inst|inst|inst4|inst11|inst~0_combout $end
$var wire 1 5! inst|inst7|inst10|inst5~combout $end
$var wire 1 6! inst|inst7|inst6|inst3~combout $end
$var wire 1 7! inst|inst7|inst8|inst6~combout $end
$var wire 1 8! inst|inst7|inst6|inst11~0_combout $end
$var wire 1 9! inst|inst7|inst5|inst11~0_combout $end
$var wire 1 :! inst|inst7|inst5|inst5~combout $end
$var wire 1 ;! inst|inst7|inst4|inst4~combout $end
$var wire 1 <! inst|inst|inst4|inst8|inst~combout $end
$var wire 1 =! inst|inst|inst5|inst5|inst3~combout $end
$var wire 1 >! inst|inst6|inst6|inst6~0_combout $end
$var wire 1 ?! inst|inst6|inst7|inst6~0_combout $end
$var wire 1 @! inst|inst6|inst9|inst6~0_combout $end
$var wire 1 A! inst|inst6|inst10|inst6~0_combout $end
$var wire 1 B! inst|inst7|inst2|inst4~2_combout $end
$var wire 1 C! inst|inst7|inst2|inst1~2_combout $end
$var wire 1 D! inst|inst2|inst1|inst3~combout $end
$var wire 1 E! inst|inst2|inst1|inst~combout $end
$var wire 1 F! inst|inst|inst3|inst2|inst2~combout $end
$var wire 1 G! inst|inst|inst3|inst18|inst2~0_combout $end
$var wire 1 H! inst|inst|inst3|inst3|inst2~combout $end
$var wire 1 I! inst|inst|inst3|inst4|inst2~combout $end
$var wire 1 J! inst|inst|inst3|inst6|inst2~combout $end
$var wire 1 K! inst|inst|inst3|inst7|inst2~combout $end
$var wire 1 L! inst|inst|inst3|inst9|inst~combout $end
$var wire 1 M! inst|inst|inst3|inst8|inst1~combout $end
$var wire 1 N! inst|inst|inst3|inst8|inst2~combout $end
$var wire 1 O! inst|inst|inst3|inst12|inst~combout $end
$var wire 1 P! inst|inst|inst3|inst5|inst2~combout $end
$var wire 1 Q! inst|inst|inst3|inst14|inst~combout $end
$var wire 1 R! inst|inst|inst3|inst16|inst~combout $end
$var wire 1 S! inst|inst|inst3|inst18|inst2~1_combout $end
$var wire 1 T! inst|inst|inst4|inst37~1_combout $end
$var wire 1 U! inst|inst|inst4|inst37~2_combout $end
$var wire 1 V! inst|inst|inst3|inst45~combout $end
$var wire 1 W! inst|inst2|inst2|inst3~combout $end
$var wire 1 X! inst|inst|inst4|inst2|inst2~combout $end
$var wire 1 Y! inst|inst|inst4|inst4|inst2~combout $end
$var wire 1 Z! inst|inst|inst4|inst3|inst2~combout $end
$var wire 1 [! inst|inst|inst4|inst11|inst~1_combout $end
$var wire 1 \! inst|inst2|inst2|inst~combout $end
$var wire 1 ]! inst|inst|inst4|inst7|inst2~combout $end
$var wire 1 ^! inst|inst|inst4|inst12|inst~combout $end
$var wire 1 _! inst|inst|inst4|inst5|inst2~combout $end
$var wire 1 `! inst|inst|inst4|inst6|inst3~combout $end
$var wire 1 a! inst|inst|inst4|inst14|inst~combout $end
$var wire 1 b! inst|inst|inst4|inst16|inst~combout $end
$var wire 1 c! inst|inst|inst4|inst18|inst2~0_combout $end
$var wire 1 d! inst|inst|inst4|inst18|inst2~combout $end
$var wire 1 e! inst|inst|inst4|inst45~combout $end
$var wire 1 f! inst|inst|inst5|inst3|inst3~combout $end
$var wire 1 g! inst|inst|inst5|inst4|inst3~combout $end
$var wire 1 h! inst|inst|inst5|inst2|inst3~combout $end
$var wire 1 i! inst|inst|inst5|inst17|inst~combout $end
$var wire 1 j! inst|inst|inst5|inst18|inst2~combout $end
$var wire 1 k! inst|inst|inst5|inst45~combout $end
$var wire 1 l! inst|inst2|inst|inst3~combout $end
$var wire 1 m! inst|inst2|inst3|inst2~0_combout $end
$var wire 1 n! inst1|lpm_mult_component|auto_generated|mac_mult1~dataout $end
$var wire 1 o! inst1|lpm_mult_component|auto_generated|mac_mult1~DATAOUT1 $end
$var wire 1 p! inst1|lpm_mult_component|auto_generated|mac_mult1~DATAOUT2 $end
$var wire 1 q! inst1|lpm_mult_component|auto_generated|mac_mult1~DATAOUT3 $end
$var wire 1 r! inst1|lpm_mult_component|auto_generated|mac_mult1~DATAOUT4 $end
$var wire 1 s! inst1|lpm_mult_component|auto_generated|mac_mult1~DATAOUT5 $end
$var wire 1 t! inst1|lpm_mult_component|auto_generated|mac_mult1~DATAOUT6 $end
$var wire 1 u! inst1|lpm_mult_component|auto_generated|mac_mult1~DATAOUT7 $end
$var wire 1 v! inst1|lpm_mult_component|auto_generated|mac_mult1~DATAOUT8 $end
$var wire 1 w! inst1|lpm_mult_component|auto_generated|mac_mult1~DATAOUT9 $end
$var wire 1 x! inst1|lpm_mult_component|auto_generated|mac_mult1~DATAOUT10 $end
$var wire 1 y! inst1|lpm_mult_component|auto_generated|mac_mult1~DATAOUT11 $end
$var wire 1 z! inst1|lpm_mult_component|auto_generated|mac_mult1~DATAOUT12 $end
$var wire 1 {! inst1|lpm_mult_component|auto_generated|mac_mult1~DATAOUT13 $end
$var wire 1 |! inst1|lpm_mult_component|auto_generated|mac_mult1~DATAOUT14 $end
$var wire 1 }! inst1|lpm_mult_component|auto_generated|mac_mult1~DATAOUT15 $end
$var wire 1 ~! inst1|lpm_mult_component|auto_generated|mac_mult1~0 $end
$var wire 1 !" inst1|lpm_mult_component|auto_generated|mac_mult1~1 $end
$var wire 1 "" inst2|inst~combout $end
$var wire 1 #" inst|inst2|inst|inst~combout $end
$var wire 1 $" inst|inst|inst|inst3|inst2~combout $end
$var wire 1 %" inst|inst|inst|inst4|inst2~combout $end
$var wire 1 &" inst|inst|inst|inst5|inst2~combout $end
$var wire 1 '" inst|inst|inst|inst6|inst2~combout $end
$var wire 1 (" inst|inst|inst|inst7|inst2~combout $end
$var wire 1 )" inst|inst|inst|inst8|inst2~combout $end
$var wire 1 *" inst|inst|inst|inst9|inst~combout $end
$var wire 1 +" inst|inst|inst|inst12|inst~combout $end
$var wire 1 ," inst|inst|inst|inst14|inst~combout $end
$var wire 1 -" inst|inst|inst|inst16|inst2~0_combout $end
$var wire 1 ." inst|inst7|inst10|inst12~combout $end
$var wire 1 /" inst|inst7|inst10|inst3~combout $end
$var wire 1 0" inst|inst7|inst11|inst9~0_combout $end
$var wire 1 1" inst|inst7|inst11|inst6~combout $end
$var wire 1 2" inst|inst|inst|inst14|inst2~0_combout $end
$var wire 1 3" inst|inst7|inst8|inst3~combout $end
$var wire 1 4" inst|inst|inst3|inst17|inst2~0_combout $end
$var wire 1 5" inst|inst|inst|inst15|inst2~0_combout $end
$var wire 1 6" inst|inst7|inst9|inst4~combout $end
$var wire 1 7" inst|inst7|inst9|inst5~combout $end
$var wire 1 8" inst|inst7|inst9|inst3~combout $end
$var wire 1 9" inst|inst7|inst10|inst4~combout $end
$var wire 1 :" inst|inst7|inst10|inst6~combout $end
$var wire 1 ;" inst|inst7|inst9|inst12~combout $end
$var wire 1 <" inst|inst6|inst11|inst6~0_combout $end
$var wire 1 =" inst|inst6|inst12|inst6~0_combout $end
$var wire 1 >" inst|inst7|inst11|inst3~combout $end
$var wire 1 ?" inst|inst|inst|inst18|inst2~0_combout $end
$var wire 1 @" inst|inst|inst|inst16|inst~combout $end
$var wire 1 A" inst|inst|inst|inst18|inst2~1_combout $end
$var wire 1 B" inst2|inst1~0_combout $end
$var wire 1 C" inst|inst7|inst11|inst13~0_combout $end
$var wire 1 D" inst|inst7|inst11|inst2~0_combout $end
$var wire 1 E" inst|inst7|inst11|inst13~combout $end
$var wire 1 F" inst2|inst1~combout $end
$var wire 1 G" inst|inst6|inst12|inst2~combout $end
$var wire 1 H" inst2|inst2~combout $end
$var wire 1 I" inst|inst6|inst11|inst2~combout $end
$var wire 1 J" inst2|inst3~combout $end
$var wire 1 K" inst|inst7|inst8|inst12~combout $end
$var wire 1 L" inst|inst7|inst9|inst6~combout $end
$var wire 1 M" inst|inst7|inst8|inst4~combout $end
$var wire 1 N" inst|inst|inst|inst13|inst2~0_combout $end
$var wire 1 O" inst|inst|inst4|inst17|inst2~combout $end
$var wire 1 P" inst|inst7|inst7|inst3~combout $end
$var wire 1 Q" inst|inst7|inst8|inst5~combout $end
$var wire 1 R" inst|inst6|inst10|inst2~combout $end
$var wire 1 S" inst2|inst8~combout $end
$var wire 1 T" inst|inst7|inst7|inst12~combout $end
$var wire 1 U" inst|inst7|inst7|inst11~0_combout $end
$var wire 1 V" inst|inst|inst3|inst15|inst2~0_combout $end
$var wire 1 W" inst|inst7|inst7|inst6~combout $end
$var wire 1 X" inst|inst|inst4|inst16|inst2~combout $end
$var wire 1 Y" inst|inst|inst3|inst14|inst2~0_combout $end
$var wire 1 Z" inst|inst|inst|inst12|inst2~0_combout $end
$var wire 1 [" inst|inst7|inst6|inst12~combout $end
$var wire 1 \" inst|inst|inst5|inst17|inst2~combout $end
$var wire 1 ]" inst|inst|inst3|inst13|inst2~0_combout $end
$var wire 1 ^" inst|inst|inst4|inst15|inst2~0_combout $end
$var wire 1 _" inst|inst|inst4|inst15|inst2~combout $end
$var wire 1 `" inst|inst7|inst5|inst3~combout $end
$var wire 1 a" inst|inst7|inst6|inst5~combout $end
$var wire 1 b" inst|inst6|inst8|inst6~0_combout $end
$var wire 1 c" inst|inst7|inst7|inst5~combout $end
$var wire 1 d" inst|inst6|inst9|inst2~combout $end
$var wire 1 e" inst2|inst9888~combout $end
$var wire 1 f" inst|inst6|inst8|inst2~combout $end
$var wire 1 g" inst2|inst1077~combout $end
$var wire 1 h" inst|inst|inst5|inst14|inst~0_combout $end
$var wire 1 i" inst|inst|inst5|inst14|inst~combout $end
$var wire 1 j" inst|inst|inst5|inst16|inst2~combout $end
$var wire 1 k" inst|inst7|inst4|inst5~4_combout $end
$var wire 1 l" inst|inst|inst3|inst12|inst2~0_combout $end
$var wire 1 m" inst|inst7|inst3|inst~combout $end
$var wire 1 n" inst|inst7|inst4|inst5~combout $end
$var wire 1 o" inst|inst|inst4|inst14|inst2~combout $end
$var wire 1 p" inst|inst7|inst4|inst3~combout $end
$var wire 1 q" inst|inst7|inst5|inst6~combout $end
$var wire 1 r" inst|inst7|inst4|inst12~combout $end
$var wire 1 s" inst|inst6|inst5|inst6~0_combout $end
$var wire 1 t" inst|inst7|inst5|inst12~combout $end
$var wire 1 u" inst|inst7|inst6|inst6~combout $end
$var wire 1 v" inst|inst6|inst7|inst2~combout $end
$var wire 1 w" inst2|inst1771~combout $end
$var wire 1 x" inst|inst6|inst5|inst2~combout $end
$var wire 1 y" inst2|inst16~combout $end
$var wire 1 z" inst|inst7|inst3|inst9~0_combout $end
$var wire 1 {" inst|inst|inst4|inst12|inst2~0_combout $end
$var wire 1 |" inst|inst7|inst3|inst13~0_combout $end
$var wire 1 }" inst|inst7|inst3|inst6~combout $end
$var wire 1 ~" inst|inst|inst5|inst11|inst~0_combout $end
$var wire 1 !# inst|inst|inst5|inst7|inst2~0_combout $end
$var wire 1 "# inst|inst|inst5|inst6|inst3~combout $end
$var wire 1 ## inst|inst|inst5|inst14|inst2~combout $end
$var wire 1 $# inst|inst7|inst2|inst1~combout $end
$var wire 1 %# inst|inst|inst5|inst12|inst2~0_combout $end
$var wire 1 &# inst|inst|inst4|inst8|inst1~combout $end
$var wire 1 '# inst|inst|inst4|inst9|inst~combout $end
$var wire 1 (# inst|inst|inst4|inst11|inst2~combout $end
$var wire 1 )# inst|inst|inst5|inst13|inst2~combout $end
$var wire 1 *# inst|inst6|inst3|inst6~0_combout $end
$var wire 1 +# inst|inst6|inst4|inst6~0_combout $end
$var wire 1 ,# inst|inst6|inst6|inst2~combout $end
$var wire 1 -# inst2|inst4~combout $end
$var wire 1 .# inst|inst6|inst4|inst2~combout $end
$var wire 1 /# inst2|inst5~combout $end
$var wire 1 0# inst|inst7|inst2|inst4~combout $end
$var wire 1 1# inst2|inst6~combout $end
$var wire 1 2# inst|inst6|inst2|inst3~combout $end
$var wire 1 3# inst2|inst9~combout $end
$var wire 1 4# inst2|inst10~combout $end
$var wire 1 5# inst|inst|inst5|inst11|inst2~combout $end
$var wire 1 6# inst2|inst11~combout $end
$var wire 1 7# inst2|inst12~combout $end
$var wire 1 8# inst|inst|inst5|inst15|inst2~combout $end
$var wire 1 9# inst|inst|inst5|inst9|inst~combout $end
$var wire 1 :# inst|inst|inst4|inst13|inst2~combout $end
$var wire 1 ;# inst|inst|inst3|inst16|inst2~0_combout $end
$var wire 1 <# inst|inst|inst3|inst11|inst2~0_combout $end
$var wire 1 =# inst|inst|inst3|inst11|inst2~1_combout $end
$var wire 1 ># inst|inst|inst|inst2|inst2~combout $end
$var wire 1 ?# inst|inst|inst|inst17|inst2~0_combout $end
$var wire 1 @# inst|inst|inst|inst11|inst2~0_combout $end
$var wire 1 A# inst|inst14~combout $end
$var wire 1 B# inst|inst6|inst13|inst2~0_combout $end
$var wire 1 C# inst|inst6|inst13|inst2~combout $end
$var wire 1 D# inst|inst6|inst3|inst2~combout $end
$var wire 1 E# inst|inst7|inst0|inst4~combout $end
$var wire 1 F# inst1|lpm_mult_component|auto_generated|result [15] $end
$var wire 1 G# inst1|lpm_mult_component|auto_generated|result [14] $end
$var wire 1 H# inst1|lpm_mult_component|auto_generated|result [13] $end
$var wire 1 I# inst1|lpm_mult_component|auto_generated|result [12] $end
$var wire 1 J# inst1|lpm_mult_component|auto_generated|result [11] $end
$var wire 1 K# inst1|lpm_mult_component|auto_generated|result [10] $end
$var wire 1 L# inst1|lpm_mult_component|auto_generated|result [9] $end
$var wire 1 M# inst1|lpm_mult_component|auto_generated|result [8] $end
$var wire 1 N# inst1|lpm_mult_component|auto_generated|result [7] $end
$var wire 1 O# inst1|lpm_mult_component|auto_generated|result [6] $end
$var wire 1 P# inst1|lpm_mult_component|auto_generated|result [5] $end
$var wire 1 Q# inst1|lpm_mult_component|auto_generated|result [4] $end
$var wire 1 R# inst1|lpm_mult_component|auto_generated|result [3] $end
$var wire 1 S# inst1|lpm_mult_component|auto_generated|result [2] $end
$var wire 1 T# inst1|lpm_mult_component|auto_generated|result [1] $end
$var wire 1 U# inst1|lpm_mult_component|auto_generated|result [0] $end
$var wire 1 V# X~combout [7] $end
$var wire 1 W# X~combout [6] $end
$var wire 1 X# X~combout [5] $end
$var wire 1 Y# X~combout [4] $end
$var wire 1 Z# X~combout [3] $end
$var wire 1 [# X~combout [2] $end
$var wire 1 \# X~combout [1] $end
$var wire 1 ]# X~combout [0] $end
$var wire 1 ^# Y~combout [7] $end
$var wire 1 _# Y~combout [6] $end
$var wire 1 `# Y~combout [5] $end
$var wire 1 a# Y~combout [4] $end
$var wire 1 b# Y~combout [3] $end
$var wire 1 c# Y~combout [2] $end
$var wire 1 d# Y~combout [1] $end
$var wire 1 e# Y~combout [0] $end
$var wire 1 f# inst1|lpm_mult_component|auto_generated|mac_out2_DATAOUT_bus [17] $end
$var wire 1 g# inst1|lpm_mult_component|auto_generated|mac_out2_DATAOUT_bus [16] $end
$var wire 1 h# inst1|lpm_mult_component|auto_generated|mac_out2_DATAOUT_bus [15] $end
$var wire 1 i# inst1|lpm_mult_component|auto_generated|mac_out2_DATAOUT_bus [14] $end
$var wire 1 j# inst1|lpm_mult_component|auto_generated|mac_out2_DATAOUT_bus [13] $end
$var wire 1 k# inst1|lpm_mult_component|auto_generated|mac_out2_DATAOUT_bus [12] $end
$var wire 1 l# inst1|lpm_mult_component|auto_generated|mac_out2_DATAOUT_bus [11] $end
$var wire 1 m# inst1|lpm_mult_component|auto_generated|mac_out2_DATAOUT_bus [10] $end
$var wire 1 n# inst1|lpm_mult_component|auto_generated|mac_out2_DATAOUT_bus [9] $end
$var wire 1 o# inst1|lpm_mult_component|auto_generated|mac_out2_DATAOUT_bus [8] $end
$var wire 1 p# inst1|lpm_mult_component|auto_generated|mac_out2_DATAOUT_bus [7] $end
$var wire 1 q# inst1|lpm_mult_component|auto_generated|mac_out2_DATAOUT_bus [6] $end
$var wire 1 r# inst1|lpm_mult_component|auto_generated|mac_out2_DATAOUT_bus [5] $end
$var wire 1 s# inst1|lpm_mult_component|auto_generated|mac_out2_DATAOUT_bus [4] $end
$var wire 1 t# inst1|lpm_mult_component|auto_generated|mac_out2_DATAOUT_bus [3] $end
$var wire 1 u# inst1|lpm_mult_component|auto_generated|mac_out2_DATAOUT_bus [2] $end
$var wire 1 v# inst1|lpm_mult_component|auto_generated|mac_out2_DATAOUT_bus [1] $end
$var wire 1 w# inst1|lpm_mult_component|auto_generated|mac_out2_DATAOUT_bus [0] $end
$var wire 1 x# inst1|lpm_mult_component|auto_generated|mac_mult1_DATAOUT_bus [17] $end
$var wire 1 y# inst1|lpm_mult_component|auto_generated|mac_mult1_DATAOUT_bus [16] $end
$var wire 1 z# inst1|lpm_mult_component|auto_generated|mac_mult1_DATAOUT_bus [15] $end
$var wire 1 {# inst1|lpm_mult_component|auto_generated|mac_mult1_DATAOUT_bus [14] $end
$var wire 1 |# inst1|lpm_mult_component|auto_generated|mac_mult1_DATAOUT_bus [13] $end
$var wire 1 }# inst1|lpm_mult_component|auto_generated|mac_mult1_DATAOUT_bus [12] $end
$var wire 1 ~# inst1|lpm_mult_component|auto_generated|mac_mult1_DATAOUT_bus [11] $end
$var wire 1 !$ inst1|lpm_mult_component|auto_generated|mac_mult1_DATAOUT_bus [10] $end
$var wire 1 "$ inst1|lpm_mult_component|auto_generated|mac_mult1_DATAOUT_bus [9] $end
$var wire 1 #$ inst1|lpm_mult_component|auto_generated|mac_mult1_DATAOUT_bus [8] $end
$var wire 1 $$ inst1|lpm_mult_component|auto_generated|mac_mult1_DATAOUT_bus [7] $end
$var wire 1 %$ inst1|lpm_mult_component|auto_generated|mac_mult1_DATAOUT_bus [6] $end
$var wire 1 &$ inst1|lpm_mult_component|auto_generated|mac_mult1_DATAOUT_bus [5] $end
$var wire 1 '$ inst1|lpm_mult_component|auto_generated|mac_mult1_DATAOUT_bus [4] $end
$var wire 1 ($ inst1|lpm_mult_component|auto_generated|mac_mult1_DATAOUT_bus [3] $end
$var wire 1 )$ inst1|lpm_mult_component|auto_generated|mac_mult1_DATAOUT_bus [2] $end
$var wire 1 *$ inst1|lpm_mult_component|auto_generated|mac_mult1_DATAOUT_bus [1] $end
$var wire 1 +$ inst1|lpm_mult_component|auto_generated|mac_mult1_DATAOUT_bus [0] $end
$upscope $end
$upscope $end
$enddefinitions $end
#0
$dumpvars
b10000000 !
b1000000 "
0&
0%
0$
1#
06
05
04
03
02
01
00
0/
0.
0-
0,
0+
0*
0)
0(
0'
0:
09
08
17
0C
0B
0A
0@
0?
0>
0=
0<
0;
0L
0K
0J
0I
0H
0G
0F
0E
0D
0U
0T
0S
0R
0Q
0P
0O
0N
0M
0^
0]
0\
0[
0Z
0Y
0X
1W
1V
0n
0m
0l
0k
0j
0i
0h
0g
0f
0e
0d
0c
0b
1a
1`
1_
0~
0}
0|
0{
0z
0y
0x
0w
0v
0u
0t
0s
0r
1q
1p
1o
0$!
0#!
0"!
0!!
0%!
0&!
0'!
0(!
x)!
0*!
1+!
x,!
1-!
1.!
1/!
00!
01!
02!
03!
14!
05!
06!
07!
18!
09!
0:!
1;!
0<!
0=!
0>!
0?!
0@!
0A!
0B!
1C!
0D!
0E!
0F!
0G!
0H!
0I!
0J!
0K!
0L!
0M!
0N!
1O!
0P!
0Q!
0R!
0S!
1T!
0U!
0V!
0W!
0X!
0Y!
0Z!
0[!
0\!
0]!
1^!
0_!
0`!
0a!
0b!
0c!
0d!
0e!
0f!
0g!
0h!
0i!
0j!
0k!
1l!
0m!
0n!
0o!
0p!
0q!
0r!
0s!
0t!
0u!
0v!
0w!
0x!
0y!
0z!
1{!
1|!
1}!
0~!
0!"
0""
0#"
0$"
0%"
0&"
0'"
0("
0)"
0*"
0+"
1,"
0-"
0."
0/"
00"
11"
02"
03"
04"
05"
06"
07"
08"
09"
0:"
0;"
0<"
0="
0>"
1?"
1@"
1A"
0B"
0C"
0D"
0E"
0F"
1G"
0H"
0I"
0J"
0K"
0L"
0M"
1N"
0O"
0P"
0Q"
0R"
0S"
0T"
1U"
0V"
1W"
0X"
0Y"
0Z"
0["
0\"
1]"
1^"
0_"
0`"
0a"
0b"
0c"
0d"
0e"
1f"
1g"
1h"
0i"
0j"
0k"
0l"
0m"
0n"
0o"
0p"
1q"
0r"
0s"
0t"
1u"
1v"
1w"
1x"
1y"
1z"
1{"
0|"
1}"
0~"
0!#
0"#
0##
1$#
1%#
0&#
0'#
0(#
1)#
0*#
0+#
1,#
1-#
0.#
0/#
10#
11#
02#
03#
14#
05#
06#
07#
08#
09#
1:#
0;#
0<#
0=#
1>#
1?#
0@#
1A#
0B#
1C#
1D#
1E#
0U#
0T#
0S#
0R#
0Q#
0P#
0O#
0N#
0M#
0L#
0K#
0J#
0I#
1H#
1G#
1F#
0]#
0\#
0[#
0Z#
0Y#
0X#
0W#
1V#
0e#
0d#
0c#
0b#
0a#
0`#
1_#
0^#
0w#
0v#
0u#
0t#
0s#
0r#
0q#
0p#
0o#
0n#
0m#
0l#
0k#
0j#
0i#
1h#
1g#
1f#
0+$
0*$
0)$
0($
0'$
0&$
0%$
0$$
0#$
0"$
0!$
0~#
0}#
0|#
0{#
1z#
1y#
1x#
$end
#1000
b10000001 !
1]#
1#$
1t!
1o#
1O#
0)!
1g!
0-#
1$!
1x
1j"
10
1k"
0;!
1=
0,#
1-#
1h
00
#2000
b10000011 !
b10000010 !
0]#
1\#
1"$
0#$
1u!
0t!
1n#
0o#
1N#
0O#
1)!
1"#
1~"
1m!
1j!
1f!
1=!
0E#
0%#
1i"
1\!
04!
0y"
0-#
0$!
1:
1w
0x
1E#
1%#
1k!
08!
0j"
1\"
04#
1Y!
1&
1;
1#!
1l
1A
1/
10
14#
1B#
0U"
1M"
1B"
1>"
19"
16"
01"
0u"
0k"
1;!
19!
1X"
1%!
0=
1<
0l
0A
14
0C#
0W"
17!
1F"
0B#
0B"
1:"
1L"
0G"
0v"
1,#
0q"
1u"
1["
1F
04
1b"
1d"
1C#
0F"
1I"
1R"
1H"
0w"
1-#
0x"
1v"
0`
1(
0a
1f
0h
0d"
1@!
1e"
1J"
1S"
1y"
1w"
1d
1`
0(
1b
1c
1)
1.
00
1g
0f
0e"
0R"
1A!
0d
1,
1*
1+
0/
0.
0S"
0I"
1<"
0,
0c
0J"
1G"
0+
0b
0H"
0*
1a
0)
#3000
b10000011 !
1]#
1#$
1t!
1o#
1O#
0)!
0m!
1h!
0g!
0-#
1$!
1x
1j"
0&
10
1k"
0;!
1=
0,#
1-#
1h
00
#4000
b10000111 !
b10000101 !
b10000100 !
0]#
0\#
1[#
1!$
0"$
0#$
1v!
0u!
0t!
1m#
0n#
0o#
1M#
0N#
0O#
1)!
0"#
0~"
0j!
0h!
0f!
0=!
0E#
0%#
0i"
0w"
0y"
0-#
0$!
0:
1v
0w
0x
1E#
1%#
0["
0k!
18!
0\"
0j"
04#
0;
1l
1A
1.
1/
10
14#
0f"
0b"
1B#
1U"
0M"
1B"
0>"
09"
06"
11"
0u"
09!
0k"
1;!
0%!
0<
0=
0l
0A
14
0g"
1d"
0@!
0C#
1W"
07!
1F"
0B#
0B"
0:"
0L"
0G"
1="
0v"
1q"
1,#
04
1e
1e"
0A!
1f"
0d"
1I"
0<"
1H"
1w"
1x"
1-#
1d
0`
1(
0a
1-
1f
0h
0I"
1g"
0e"
1J"
1G"
0="
1y"
1,
0d
1b
1)
0e
0.
0g
00
0J"
0H"
1C#
0F"
0b
0,
1*
1a
0-
0/
0*
0)
1`
0(
#5000
b10000101 !
1]#
1#$
1t!
1o#
1O#
0)!
1g!
0-#
1$!
1x
1j"
10
1k"
0;!
1=
0,#
1-#
1h
00
#6000
b10000111 !
b10000110 !
0]#
1\#
1"$
0#$
1u!
0t!
1n#
0o#
1N#
0O#
1)!
1"#
1~"
1m!
1j!
1f!
1=!
0E#
0%#
1i"
0\!
1W!
14!
0y"
0-#
0$!
1:
1w
0x
1E#
1%#
1["
1k!
08!
0j"
1\"
04#
0Y!
1X!
1&
1;
0#!
1%
1l
1A
1/
10
14#
0f"
1B#
0U"
1M"
1B"
1>"
19"
16"
01"
1u"
0k"
1;!
19!
0X"
1O"
1%!
0=
1<
0l
0A
14
0g"
0C#
17!
1F"
0B#
0B"
1:"
1L"
0G"
1v"
1,#
0q"
0u"
0["
1T"
0F
1E
04
1e
1@!
1C#
0F"
1I"
1R"
1H"
0w"
1-#
0x"
0v"
1f"
0`
1(
0a
1-
0f
0h
0R"
1A!
1J"
1S"
1y"
1w"
1g"
1`
0(
1b
1c
1)
1.
00
1g
1f
0e
0S"
0I"
1<"
0c
1*
1+
0/
0.
0-
0J"
1G"
0+
0b
0H"
0*
1a
0)
#7000
b10000111 !
1]#
1#$
1t!
1o#
1O#
0)!
0m!
1h!
0g!
0-#
1$!
1x
1j"
0&
10
1k"
0;!
1=
0,#
1-#
1h
00
